<svg xmlns="http://www.w3.org/2000/svg" xmlns:xlink="http://www.w3.org/1999/xlink" width="772" height="504" viewBox="0 0 772 504">
    <defs>
        <linearGradient id="b" x1="3.355%" x2="96.831%" y1="3.355%" y2="96.831%">
            <stop offset="0%" stop-color="#7972E8"/>
            <stop offset="100%" stop-color="#8399F0"/>
        </linearGradient>
        <path id="a" d="M0 0h772v504H0z"/>
    </defs>
    <g fill="none" fill-rule="evenodd">
        <mask id="c" fill="#fff">
            <use xlink:href="#a"/>
        </mask>
        <use fill="url(#b)" xlink:href="#a"/>
        <g fill="#FFF" mask="url(#c)" opacity=".05">
            <path d="M276.504 81.397l67.76 83.675a68.487 68.487 0 0 0 63.947 24.541l106.36-16.856a68.516 68.516 0 0 0 53.238-43.11L606.41 29.114a68.488 68.488 0 0 0-10.709-67.653l-67.76-83.675a68.49 68.49 0 0 0-63.946-24.54l-106.36 16.855a68.516 68.516 0 0 0-53.239 43.111l-38.6 100.532a68.49 68.49 0 0 0 10.708 67.652M-21.04 125.65c-66.474 48.296-81.2 141.343-32.895 207.83 48.305 66.486 141.35 81.234 207.823 32.938 66.473-48.295 81.2-141.345 32.895-207.83C138.478 92.1 45.433 77.353-21.04 125.648M1003.989 324.652L790.164 480.005c-15.867 11.528-38.227 8.062-49.684-7.706L586.117 259.837c-11.456-15.769-7.843-38.106 8.024-49.634L807.966 54.85c15.872-11.532 38.228-8.062 49.684 7.707l154.363 212.462c11.456 15.768 7.848 38.102-8.024 49.633M47.962-5.872l-191.935 139.45c-14.731 10.702-35.454 1.41-37.133-16.65l-21.56-231.484c-1.654-17.763 16.394-30.875 32.775-23.811L43.605-46.334c16.655 7.18 19.088 29.76 4.357 40.462M497.578 436.643L304.43 576.973c-14.818 10.766-35.822 1.215-37.629-17.12l-23.186-234.994c-1.779-18.03 16.383-31.226 32.981-23.962l216.328 94.668c16.88 7.384 19.476 30.31 4.654 41.078"/>
            <path d="M1000.274 589.747L829.942 713.501c-13.068 9.495-31.616 1.037-33.229-15.16l-20.698-207.58c-1.589-15.928 14.428-27.565 29.085-21.132l191.025 83.831c14.905 6.54 17.22 26.79 4.149 36.287"/>
        </g>
    </g>
</svg>
