<svg xmlns="http://www.w3.org/2000/svg" xmlns:xlink="http://www.w3.org/1999/xlink" width="159" height="28" viewBox="0 0 159 28">
    <defs>
        <path id="a" d="M0 .755h41.965v26.342H0z"/>
        <path id="c" d="M.75.675h11.947v12.842H.75z"/>
    </defs>
    <g fill="none" fill-rule="evenodd">
        <g transform="translate(0 .148)">
            <mask id="b" fill="#fff">
                <use xlink:href="#a"/>
            </mask>
            <path fill="#FFF" d="M20.983 4.095c4.896 0 8.956 3.6 9.7 8.29h-19.4c.743-4.69 4.803-8.29 9.7-8.29m19.312 8.29h-6.232C33.297 5.847 27.725.755 20.983.755c-6.743 0-12.315 5.092-13.08 11.63H1.67a1.67 1.67 0 0 0 0 3.34h6.266c.88 6.414 6.394 11.372 13.047 11.372a1.67 1.67 0 0 0 0-3.34c-4.807 0-8.812-3.469-9.66-8.032h28.972a1.67 1.67 0 0 0 0-3.34" mask="url(#b)"/>
        </g>
        <path fill="#231F20" d="M11.844 17.634a9.785 9.785 0 0 1-.527-1.759H7.925c.088.602.229 1.186.395 1.759h3.524z" opacity=".2"/>
        <path fill="#FFF" d="M57.48 9.614c.932 0 1.666.272 2.24.832.52.507.86 1.182 1.014 2.01h-6.921c.195-.824.584-1.496 1.16-2.002.635-.557 1.478-.84 2.507-.84m3.098-1.584c-.87-.527-1.912-.794-3.098-.794-1.2 0-2.29.277-3.239.825a5.838 5.838 0 0 0-2.238 2.306c-.53.979-.8 2.096-.8 3.322 0 1.23.285 2.346.848 3.318a6.027 6.027 0 0 0 2.362 2.292c1 .546 2.145.822 3.403.822.709 0 1.46-.132 2.235-.392.776-.262 1.437-.606 1.956-1.02.299-.222.45-.51.45-.852 0-.352-.164-.667-.478-.93-.411-.37-1.205-.379-1.7.011-.293.223-.674.415-1.135.571a4.153 4.153 0 0 1-1.328.234c-1.076 0-1.998-.307-2.737-.912a3.711 3.711 0 0 1-1.294-2.132h8.243c.36 0 .66-.115.896-.343.24-.23.362-.522.362-.868 0-1.21-.234-2.298-.696-3.236a5.273 5.273 0 0 0-2.012-2.222M70.41 10.152a3.634 3.634 0 0 1 1.91-.516c.702 0 1.345.174 1.91.516a3.657 3.657 0 0 1 1.342 1.426c.324.606.489 1.295.489 2.044 0 .75-.165 1.434-.488 2.033a3.63 3.63 0 0 1-3.253 1.931 3.63 3.63 0 0 1-1.91-.516 3.754 3.754 0 0 1-1.354-1.417c-.331-.598-.5-1.281-.5-2.03 0-.75.169-1.438.5-2.043a3.737 3.737 0 0 1 1.354-1.428m5.15-2.135c-.965-.564-2.054-.85-3.24-.85-1.185 0-2.281.286-3.26.849a6.157 6.157 0 0 0-2.315 2.325c-.554.979-.835 2.083-.835 3.281s.261 2.3.777 3.276a5.893 5.893 0 0 0 2.143 2.316c.905.558 1.929.84 3.042.84.897 0 1.744-.189 2.518-.56a5.735 5.735 0 0 0 1.581-1.118v.243c0 .39.132.719.391.977.259.26.588.391.978.391s.718-.13.977-.39c.26-.26.392-.589.392-.978v-4.997c0-1.2-.286-2.304-.849-3.282a6.278 6.278 0 0 0-2.3-2.323M87.29 12.303c-.774-.16-1.372-.326-1.776-.492-.47-.192-.67-.37-.755-.485-.12-.163-.18-.365-.18-.617 0-.33.177-.583.54-.774.407-.213.941-.321 1.588-.321.57 0 1.057.067 1.45.201.387.131.76.36 1.11.681.354.322.76.484 1.204.484.301 0 .558-.075.772-.231.307-.252.463-.545.463-.868 0-.29-.115-.58-.342-.859-.47-.58-1.116-1.04-1.916-1.367-.792-.323-1.7-.487-2.697-.487-.813 0-1.592.133-2.317.394-.738.267-1.342.674-1.799 1.209-.467.547-.703 1.222-.703 2.006 0 1.923 1.51 3.188 4.486 3.762 1.071.202 1.835.452 2.271.739.398.264.593.58.593.965 0 .398-.195.708-.597.95-.432.26-1.06.393-1.866.393-.61 0-1.193-.11-1.73-.33-.534-.218-.937-.474-1.203-.769-.562-.56-1.206-.646-1.931-.11-.358.267-.538.622-.538 1.054 0 .33.12.618.357.855.529.528 1.266.961 2.19 1.285.916.32 1.907.484 2.944.484 1.043 0 1.953-.169 2.703-.501.76-.337 1.346-.81 1.743-1.404a3.54 3.54 0 0 0 .598-1.996c0-.99-.37-1.81-1.098-2.434-.718-.614-1.883-1.078-3.563-1.417M105.54 7.39a1.517 1.517 0 0 0-.63-.132c-.333 0-.79.136-1.082.783l-3.414 7.698-3.886-7.73c-.246-.49-.641-.75-1.142-.75a1.32 1.32 0 0 0-.543.11 1.41 1.41 0 0 0-.56.452 1.12 1.12 0 0 0-.221.67c0 .219.048.414.138.576l4.991 9.47L97 23.47a1.416 1.416 0 0 0-.158.639c0 .333.14.792.809 1.081.239.103.444.153.626.153.347 0 .817-.146 1.08-.829l6.858-15.417c.103-.24.154-.444.154-.627 0-.346-.146-.815-.828-1.079M112.065 10.152a3.645 3.645 0 0 1 1.912-.516c.702 0 1.344.174 1.91.516a3.738 3.738 0 0 1 1.354 1.428c.332.605.499 1.293.499 2.042 0 .75-.167 1.433-.499 2.03a3.745 3.745 0 0 1-1.353 1.418 3.632 3.632 0 0 1-1.91.516 3.635 3.635 0 0 1-1.912-.516 3.67 3.67 0 0 1-1.341-1.415c-.325-.6-.488-1.283-.488-2.033s.163-1.438.489-2.044a3.659 3.659 0 0 1 1.34-1.426m5.173-2.136c-.98-.563-2.077-.848-3.262-.848s-2.275.285-3.24.849a6.274 6.274 0 0 0-2.3 2.323c-.563.978-.848 2.083-.848 3.282V23.84c0 .403.132.737.393.99.261.25.588.377.976.377.404 0 .736-.127.988-.38.253-.252.38-.585.38-.987v-5.463a5.737 5.737 0 0 0 4.1 1.677c1.113 0 2.137-.282 3.042-.84a5.915 5.915 0 0 0 2.144-2.316c.515-.978.777-2.08.777-3.276 0-1.198-.282-2.303-.837-3.281a6.14 6.14 0 0 0-2.313-2.325M127.602 17.273h-.56c-.156 0-.389-.045-.611-.427-.188-.32-.283-.741-.283-1.252V3.361c0-.39-.128-.713-.38-.966-.253-.251-.578-.38-.967-.38-.388 0-.714.129-.966.38-.252.25-.38.577-.38.966v12.233c0 .82.15 1.571.445 2.231.3.671.73 1.2 1.279 1.574.552.376 1.178.565 1.909.565.495 0 .91-.119 1.232-.357.343-.252.517-.586.517-.989 0-.383-.113-.705-.337-.956a1.154 1.154 0 0 0-.898-.39M134.386 10.152a3.634 3.634 0 0 1 1.91-.516c.702 0 1.345.174 1.91.516a3.657 3.657 0 0 1 1.342 1.426c.324.606.489 1.295.489 2.044 0 .75-.165 1.434-.488 2.033a3.63 3.63 0 0 1-3.253 1.931 3.63 3.63 0 0 1-1.91-.516 3.754 3.754 0 0 1-1.354-1.417c-.33-.598-.499-1.281-.499-2.03 0-.75.168-1.438.5-2.043a3.737 3.737 0 0 1 1.353-1.428m5.15-2.135c-.965-.564-2.054-.85-3.24-.85-1.185 0-2.281.286-3.26.849a6.157 6.157 0 0 0-2.315 2.325c-.554.979-.835 2.083-.835 3.281s.261 2.3.777 3.276a5.893 5.893 0 0 0 2.143 2.316c.905.558 1.929.84 3.042.84.897 0 1.744-.189 2.518-.56a5.735 5.735 0 0 0 1.581-1.118v.243c0 .39.132.719.392.977.258.26.587.391.977.391s.718-.13.978-.39c.259-.26.39-.589.39-.978v-4.997c0-1.2-.285-2.304-.848-3.282a6.278 6.278 0 0 0-2.3-2.323"/>
        <g transform="translate(145.449 6.47)">
            <mask id="d" fill="#fff">
                <use xlink:href="#c"/>
            </mask>
            <path fill="#FFF" d="M11.976 3.426a4.976 4.976 0 0 0-2.017-2.05c-.852-.465-1.824-.7-2.888-.7-.771 0-1.508.136-2.19.407a5.3 5.3 0 0 0-1.41.826 1.293 1.293 0 0 0-.363-.742c-.253-.252-.585-.38-.99-.38-.387 0-.714.127-.974.378-.261.253-.394.586-.394.99v9.993c0 .39.132.718.391.977.26.26.588.392.978.392.405 0 .74-.134.992-.395.25-.258.376-.587.376-.974V5.83c0-.496.131-.931.399-1.33a2.85 2.85 0 0 1 1.123-.954 3.63 3.63 0 0 1 1.614-.358c1.01 0 1.83.292 2.433.867.6.574.905 1.442.905 2.581v5.512c0 .39.131.72.39.977.259.26.589.392.978.392.39 0 .718-.132.978-.392.259-.26.39-.588.39-.977V6.636c0-1.242-.242-2.322-.721-3.21" mask="url(#d)"/>
        </g>
    </g>
</svg>
