<svg xmlns="http://www.w3.org/2000/svg" xmlns:xlink="http://www.w3.org/1999/xlink" width="320" height="1299" viewBox="0 0 320 1299">
    <defs>
        <linearGradient id="b" x1="50%" x2="50%" y1="0%" y2="100%">
            <stop offset="0%" stop-color="#F8F8F8"/>
            <stop offset="100%" stop-color="#EFEFEF"/>
        </linearGradient>
        <path id="a" d="M0 0h320v1299H0z"/>
        <path id="d" d="M.082.387h237.836V87H.082z"/>
    </defs>
    <g fill="none" fill-rule="evenodd">
        <mask id="c" fill="#fff">
            <use xlink:href="#a"/>
        </mask>
        <use fill="url(#b)" xlink:href="#a"/>
        <g mask="url(#c)" opacity=".45">
            <path fill="#FFF" d="M269 884c-41.973 0-76 34.027-76 76 0 41.974 34.027 76 76 76s76-34.026 76-76c0-41.973-34.027-76-76-76M55.5 1063C-4.421 1063-53 1111.579-53 1171.5c0 59.924 48.579 108.5 108.5 108.5S164 1231.424 164 1171.5c0-59.921-48.579-108.5-108.5-108.5M15 794c-41.974 0-76 34.027-76 76 0 41.974 34.026 76 76 76 41.973 0 76-34.026 76-76 0-41.973-34.027-76-76-76M195 239.001C195 280.974 229.026 315 270.999 315 312.976 315 347 280.974 347 239.001 347 197.026 312.976 163 270.999 163 229.026 163 195 197.026 195 239.001M20.001 172C67.496 172 106 133.496 106 86S67.496 0 20.001 0C-27.496 0-66 38.504-66 86s38.504 86 86.001 86M296 760c0-42.525-34.475-77-77-77-42.527 0-77 34.475-77 77s34.473 77 77 77c42.525 0 77-34.475 77-77M341.5 397C282.127 397 234 445.13 234 504.5S282.127 612 341.5 612c59.37 0 107.5-48.13 107.5-107.5S400.87 397 341.5 397M16.001 265C-64.081 265-129 329.92-129 410s64.919 145 145.001 145C96.081 555 161 490.08 161 410S96.081 265 16.001 265"/>
        </g>
    </g>
</svg>
