<svg xmlns="http://www.w3.org/2000/svg" xmlns:xlink="http://www.w3.org/1999/xlink" width="1900" height="269" viewBox="0 0 1900 269">
    <defs>
        <linearGradient id="b" x1="47.578%" x2="47.578%" y1="10.215%" y2="94.25%">
            <stop offset="100%" stop-color="#58C7E1"/>
            <stop offset="100%" stop-color="#58C7E1"/>
        </linearGradient>
        <path id="a" d="M0 0h1900v270H0z"/>
    </defs>
    <g fill="none" fill-rule="evenodd">
        <mask id="c" fill="#fff">
            <use xlink:href="#a"/>
        </mask>
        <use fill="url(#b)" xlink:href="#a"/>
        <g fill="#FFF" mask="url(#c)" opacity=".12">
            <path d="M775.93 156h-40.86a35.643 35.643 0 0 0-30.866 17.814l-20.43 35.372a35.616 35.616 0 0 0 0 35.628l20.43 35.372A35.643 35.643 0 0 0 735.07 298h40.86a35.642 35.642 0 0 0 30.865-17.814l20.43-35.372a35.616 35.616 0 0 0 0-35.628l-20.43-35.372A35.642 35.642 0 0 0 775.93 156M145.916 55H78.084a59.16 59.16 0 0 0-51.241 29.606l-33.916 58.788a59.25 59.25 0 0 0 0 59.212l33.916 58.788A59.16 59.16 0 0 0 78.083 291h67.833a59.159 59.159 0 0 0 51.24-29.606l33.917-58.788a59.25 59.25 0 0 0 0-59.212l-33.916-58.788A59.159 59.159 0 0 0 145.917 55M1263.946 235.306L1162.26 122.887c-12.864-14.222-2.64-38.139 17.324-40.528L1309.78 66.78c15.931-1.906 28.219 11.678 24.73 27.34L1306 222.118c-4.372 19.628-29.19 27.41-42.054 13.188M1909.946 183.306L1808.26 70.887c-12.864-14.222-2.64-38.139 17.324-40.528L1955.78 14.78c15.931-1.906 28.219 11.678 24.73 27.34L1952 170.118c-4.372 19.628-29.19 27.41-42.054 13.188M564.96 138.259L475.643 245.2c-11.3 13.53-34.35 7.305-39.06-10.547l-30.715-116.42c-3.758-14.245 7.035-27.169 21.723-26.009l120.032 9.478c18.406 1.453 28.638 23.026 17.339 36.556M791-5.96v52.92C791 72.388 770.456 93 745.114 93h-59.228C660.544 93 640 72.388 640 46.96V-5.96C640-31.388 660.544-52 685.886-52h59.228C770.456-52 791-31.388 791-5.96M1050 43.5c0 48.877-39.623 88.5-88.5 88.5S873 92.377 873 43.5 912.623-45 961.5-45 1050-5.377 1050 43.5M1758 230.5c0 43.907-35.593 79.5-79.5 79.5s-79.5-35.593-79.5-79.5 35.593-79.5 79.5-79.5 79.5 35.593 79.5 79.5M1573-20.5c0 48.877-39.623 88.5-88.5 88.5S1396 28.377 1396-20.5s39.623-88.5 88.5-88.5 88.5 39.623 88.5 88.5"/>
        </g>
    </g>
</svg>
