<svg xmlns="http://www.w3.org/2000/svg" xmlns:xlink="http://www.w3.org/1999/xlink" width="320" height="299" viewBox="0 0 320 299">
    <defs>
        <linearGradient id="b" x1="47.578%" x2="47.578%" y1="10.215%" y2="94.25%">
            <stop offset="0%" stop-color="#58C7E1"/>
            <stop offset="100%" stop-color="#58C7E1"/>
        </linearGradient>
        <path id="a" d="M0 0h320v299H0z"/>
    </defs>
    <g fill="none" fill-rule="evenodd">
        <mask id="c" fill="#fff">
            <use xlink:href="#a"/>
        </mask>
        <use fill="url(#b)" xlink:href="#a"/>
        <g fill="#FFF" mask="url(#c)" opacity=".12">
            <path d="M173.129 168H133.87c-12.234 0-23.538 6.504-29.655 17.061L84.588 218.94a34.018 34.018 0 0 0 0 34.122l19.628 33.878C110.333 297.496 121.637 304 133.871 304h39.258c12.233 0 23.538-6.504 29.654-17.061l19.63-33.878a34.018 34.018 0 0 0 0-34.122l-19.63-33.878C196.667 174.504 185.363 168 173.13 168M-6.056 182.287l-68.219 81.674c-8.63 10.332-26.265 5.554-29.883-8.097l-23.592-89.023c-2.887-10.893 5.356-20.763 16.591-19.863l91.81 7.35c14.079 1.126 21.923 17.627 13.293 27.959M116.742 70.086L96.18 107.18C86.302 125 63.968 131.507 46.297 121.712l-41.3-22.893c-17.672-9.796-23.989-32.184-14.11-50.006l20.561-37.092C21.327-6.101 43.661-12.608 61.332-2.812l41.3 22.893c17.672 9.795 23.989 32.183 14.11 50.005M378 102.5c0 41.145-33.355 74.5-74.5 74.5S229 143.645 229 102.5 262.355 28 303.5 28 378 61.355 378 102.5"/>
        </g>
    </g>
</svg>
