<svg xmlns="http://www.w3.org/2000/svg" xmlns:xlink="http://www.w3.org/1999/xlink" width="270" height="275" viewBox="0 0 270 275">
    <defs>
        <path id="b" d="M241.985 247.664c-74.021 15.114-139.964 15.115-213.985 0a575.243 575.243 0 0 1 2.86-16.717c.968-5.194 4.206-9.209 8.128-10.207 66.71-16.987 125.299-16.987 192.009 0 3.922.998 7.16 5.013 8.128 10.207a575.172 575.172 0 0 1 2.86 16.717z"/>
        <filter id="a" width="118.7%" height="178.4%" x="-9.3%" y="-31.4%" filterUnits="objectBoundingBox">
            <feOffset dy="4" in="SourceAlpha" result="shadowOffsetOuter1"/>
            <feGaussianBlur in="shadowOffsetOuter1" result="shadowBlurOuter1" stdDeviation="6"/>
            <feColorMatrix in="shadowBlurOuter1" values="0 0 0 0 0 0 0 0 0 0 0 0 0 0 0 0 0 0 0.244536911 0"/>
        </filter>
    </defs>
    <g fill="none" fill-rule="evenodd">
        <g fill="#000">
            <use filter="url(#a)" xlink:href="#b"/>
            <use xlink:href="#b"/>
        </g>
        <path fill="#fff" d="M21.31 12.74c78.998-16.987 148.38-16.987 227.38 0 4.644.998 8.478 5.013 9.624 10.207 15.581 70.612 15.581 144.497 0 215.107-1.146 5.194-4.98 9.208-9.626 10.207-79.001 16.985-148.377 16.985-227.378 0-4.645-.999-8.48-5.013-9.625-10.207-15.58-70.613-15.58-144.494 0-215.107 1.146-5.194 4.98-9.209 9.625-10.207"/>
    </g>
</svg>
