<svg xmlns="http://www.w3.org/2000/svg" xmlns:xlink="http://www.w3.org/1999/xlink" width="1900" height="400" viewBox="0 0 1900 400">
    <defs>
        <linearGradient id="b" x1="100%" x2="0%" y1="100%" y2="0%">
            <stop offset="0%" stop-color="#FFD083"/>
            <stop offset="100%" stop-color="#FCA572"/>
        </linearGradient>
        <path id="a" d="M0 0h1900v400H0z"/>
    </defs>
    <g fill="none" fill-rule="evenodd">
        <mask id="c" fill="#fff">
            <use xlink:href="#a"/>
        </mask>
        <use fill="url(#b)" xlink:href="#a"/>
        <g fill="#FFF" mask="url(#c)" opacity=".1">
            <path d="M854.814-73l-81.712-34.432a32.727 32.727 0 0 0-32.529 4.117l-70.607 53.71a32.893 32.893 0 0 0-12.707 30.291l11.106 88.14c1.467 11.647 9.023 21.625 19.821 26.175l81.713 34.43a32.727 32.727 0 0 0 32.528-4.116l70.607-53.71a32.894 32.894 0 0 0 12.707-30.291l-11.106-88.14c-1.467-11.647-9.023-21.625-19.821-26.175M1473.73 260.464l-88.654-85.607a32.773 32.773 0 0 0-31.796-7.928l-118.467 33.966a32.767 32.767 0 0 0-22.763 23.57l-29.813 119.573a32.767 32.767 0 0 0 9.033 31.498l88.654 85.607a32.771 32.771 0 0 0 31.796 7.927l118.467-33.965a32.767 32.767 0 0 0 22.763-23.57l29.813-119.573a32.768 32.768 0 0 0-9.033-31.498M1123.246 200.46L1007.5 125.676c-14.644-9.46-11.345-32.787 5.59-39.526l110.436-43.952c13.513-5.378 27.5 3.658 28.15 18.187l5.311 118.735c.815 18.207-19.097 30.8-33.74 21.34M1694.482 323.12l-176.2-125.344c-22.291-15.857-15.302-52.056 11.843-61.339l177.023-60.54c21.661-7.408 42.953 7.739 42.852 30.484l-.824 185.884c-.126 28.504-32.404 46.713-54.694 30.855M1017 352c0 70.693-57.308 128-128 128-70.693 0-128-57.307-128-128s57.307-128 128-128c70.692 0 128 57.307 128 128M83 74c0 70.693-57.308 128-128 128-70.693 0-128-57.307-128-128S-115.693-54-45-54C25.692-54 83 3.307 83 74M553-74.5C553 2.544 490.544 65 413.5 65S274 2.544 274-74.5 336.456-214 413.5-214 553-151.544 553-74.5M372.217 186.637l-56.754 147.849c-7.822 20.375-30.68 30.552-51.055 22.73L116.56 300.464c-20.375-7.821-30.553-30.68-22.731-51.055l56.754-147.848c7.821-20.376 30.679-30.552 51.054-22.731l147.849 56.754c20.375 7.82 30.552 30.679 22.73 51.054M640.367 335.127l-106.16 45.402a30.667 30.667 0 0 1-34.923-7.762l-77.46-86.625c-8.816-9.858-10.336-24.26-3.773-35.745l58.82-102.928c6.807-11.912 20.681-17.86 33.99-14.572l113.111 27.944c12.6 3.113 21.882 13.823 23.182 26.749l11.69 116.207c1.345 13.364-6.139 26.054-18.477 31.33M1437.587 100.73l-109.039-43.88c-12.427-5-20.27-17.331-19.495-30.654L1315.88-91.4c.777-13.384 10.074-24.768 23.076-28.257l116.519-31.268c13.485-3.619 27.745 2.106 34.938 14.025l61.122 101.291a31.015 31.015 0 0 1-2.639 35.782l-75.43 91.452c-8.676 10.517-23.207 14.205-35.88 9.105M1967.587 477.73l-109.039-43.88c-12.427-5-20.27-17.331-19.495-30.654l6.828-117.596c.777-13.384 10.074-24.768 23.076-28.257l116.519-31.268c13.485-3.619 27.745 2.106 34.938 14.025l61.122 101.291a31.015 31.015 0 0 1-2.639 35.782l-75.43 91.452c-8.676 10.517-23.207 14.205-35.88 9.105"/>
        </g>
    </g>
</svg>
